D	1	/home/mattlangsenkamp/Documents/dprl/MathSeer-extraction-pipeline/inputs/ACL/pdf/A00-3007.pdf
P	1	
FR	1	1424	448	1462	478
W	1	R.	1426	450	1462	478		
S	2	R	1426	450	1453	477		
S	3	.	1455	471	1462	478		
FR	2	502	1210	607	1249
W	1	(1997),	502	1213	607	1248		
S	2	(	502	1213	511	1248		
S	3	1	516	1215	529	1240		
S	4	9	533	1214	548	1240		
S	5	9	551	1214	567	1240		
S	6	7	571	1215	586	1240		
S	7	)	589	1213	598	1248		
S	8	COMMA	602	1236	607	1246		
FR	3	313	2006	529	2045
W	1	hierarchically	313	2010	529	2045		
S	2	h	313	2010	330	2037		
S	3	i	333	2011	341	2037		
S	4	e	345	2019	358	2037		
S	5	r	361	2019	372	2037		
S	6	a	375	2019	390	2037		
S	7	r	392	2019	403	2037		
S	8	c	406	2019	420	2037		
S	9	h	423	2010	440	2037		
S	10	i	443	2011	451	2037		
S	11	c	455	2019	468	2037		
S	12	a	472	2019	486	2037		
S	13	l	489	2010	497	2037		
S	14	l	500	2010	509	2037		
S	15	y	511	2019	529	2045		
FR	4	1837	2105	1913	2143
W	1	(data	1839	2108	1913	2143		
S	2	(	1839	2108	1848	2143		
S	3	d	1851	2108	1868	2135		
S	4	a	1870	2117	1885	2135		
S	5	t	1886	2113	1896	2135		
S	6	a	1898	2117	1913	2135		
FR	5	1658	2291	1742	2321
W	1	WSD	1658	2294	1740	2320		
S	2	W	1658	2294	1692	2320		
S	3	S	1696	2294	1712	2320		
S	4	D	1716	2294	1740	2319		
P	2	
FR	1	654	305	1511	396
W	1	P(synsetlcontext(w))	673	336	975	369		
W	2	=	987	345	1003	354		
W	3	P(context(w)	1027	310	1218	343		
W	4	P(context(w))	1156	363	1359	396		
W	5	I	1230	312	1239	335		
W	6	synset)	1243	310	1343	343		
W	7	P(synset)	1354	310	1488	343		
S	8	P	673	337	690	361		
S	9	(	694	336	703	369		
S	10	s	706	344	717	361		
S	11	y	720	345	736	369		
S	12	n	738	344	754	361		
S	13	s	757	344	767	361		
S	14	e	771	344	783	361		
S	15	t	786	341	795	361		
S	16	l	797	336	805	361		
S	17	c	808	344	821	361		
S	18	o	825	344	839	361		
S	19	n	842	344	858	361		
S	20	t	860	341	869	361		
S	21	e	871	344	884	361		
S	22	x	887	345	903	361		
S	23	t	905	341	913	361		
S	24	(	916	336	925	369		
S	25	w	927	345	952	361		
S	26	)	954	336	963	369		
S	27	)	966	336	975	369		
S	28	=	987	345	1003	354		
S	29	P	1027	312	1043	335		
S	30	(	1048	310	1056	343		
S	31	c	1060	318	1073	336		
S	32	o	1077	318	1091	336		
S	33	n	1095	318	1110	335		
S	34	t	1113	315	1121	336		
S	35	e	1125	318	1137	336		
S	36	x	1140	319	1156	335		
S	37	P	1156	365	1173	388		
S	38	t	1159	315	1167	336		
S	39	(	1171	310	1179	343		
S	40	(	1177	363	1186	396		
S	41	w	1182	319	1206	336		
S	42	c	1190	371	1202	389		
S	43	o	1206	371	1220	389		
S	44	)	1209	310	1218	343		
S	45	n	1224	371	1240	388		
S	46	I	1230	312	1239	335		
S	47	t	1242	368	1251	389		
S	48	s	1243	318	1253	336		
S	49	e	1254	371	1266	389		
S	50	y	1256	319	1273	343		
S	51	x	1269	372	1286	388		
S	52	n	1275	318	1290	335		
S	53	t	1288	368	1297	389		
S	54	s	1294	318	1304	336		
S	55	(	1300	363	1309	396		
S	56	e	1308	318	1320	336		
S	57	w	1311	372	1335	389		
S	58	t	1323	315	1332	336		
S	59	)	1335	310	1343	343		
S	60	)	1338	363	1347	396		
S	61	)	1351	363	1359	396		
S	62	P	1354	312	1370	335		
S	63	(	1374	310	1383	343		
S	64	s	1387	318	1397	336		
S	65	y	1400	319	1417	343		
S	66	n	1419	318	1435	335		
S	67	s	1438	318	1448	336		
S	68	e	1452	318	1465	336		
S	69	t	1468	315	1477	336		
S	70	)	1479	310	1488	343		
FR	2	1498	638	1548	662
W	1	w	1500	643	1515	662		
W	2	2.	1527	638	1548	662		
S	3	w	1500	643	1515	662		
S	4	2	1527	638	1539	662		
S	5	.	1545	657	1548	662		
FR	3	873	816	987	855
W	1	(synset)	873	822	986	855		
S	2	(	873	822	881	855		
S	3	s	885	830	896	848		
S	4	y	899	831	915	855		
S	5	n	917	830	933	847		
S	6	s	936	830	947	848		
S	7	e	950	830	963	848		
S	8	t	966	827	975	848		
S	9	)	977	822	986	855		
FR	4	1765	859	1971	899
W	1	P(context(w))	1766	866	1967	899		
S	2	P	1766	867	1782	891		
S	3	(	1786	866	1795	899		
S	4	c	1799	874	1811	891		
S	5	o	1815	874	1829	891		
S	6	n	1833	874	1848	891		
S	7	t	1850	871	1859	891		
S	8	e	1862	874	1875	891		
S	9	x	1878	874	1894	891		
S	10	t	1896	871	1905	891		
S	11	(	1908	866	1916	899		
S	12	w	1919	874	1943	891		
S	13	)	1946	866	1954	899		
S	14	)	1958	866	1967	899		
FR	5	1226	952	1677	988
W	1	P(context(w)lsymet)P(synset).	1230	956	1677	988		
S	2	P	1230	957	1246	980		
S	3	(	1250	956	1259	988		
S	4	c	1263	964	1275	981		
S	5	o	1279	964	1293	981		
S	6	n	1297	964	1313	980		
S	7	t	1315	960	1324	981		
S	8	e	1327	964	1339	981		
S	9	x	1342	964	1358	980		
S	10	t	1360	960	1369	981		
S	11	(	1372	956	1381	988		
S	12	w	1383	964	1407	981		
S	13	)	1410	956	1419	988		
S	14	l	1422	956	1430	980		
S	15	s	1434	964	1444	981		
S	16	y	1447	964	1464	988		
S	17	m	1466	964	1491	980		
S	18	e	1494	964	1506	981		
S	19	t	1509	960	1518	981		
S	20	)	1521	956	1530	988		
S	21	P	1533	957	1550	980		
S	22	(	1554	956	1563	988		
S	23	s	1567	964	1577	981		
S	24	y	1580	964	1596	988		
S	25	n	1599	964	1614	980		
S	26	s	1618	964	1628	981		
S	27	e	1632	964	1644	981		
S	28	t	1647	960	1656	981		
S	29	)	1659	956	1668	988		
S	30	.	1673	977	1677	981		
FR	6	1425	995	1614	1033
W	1	"context(w)"	1425	1001	1608	1033		
S	2	DQUOTE	1425	1002	1435	1011		
S	3	c	1440	1009	1452	1026		
S	4	o	1456	1009	1470	1026		
S	5	n	1473	1009	1489	1026		
S	6	t	1491	1006	1500	1026		
S	7	e	1503	1009	1515	1026		
S	8	x	1518	1009	1534	1026		
S	9	t	1536	1006	1545	1026		
S	10	(	1548	1001	1556	1033		
S	11	w	1559	1009	1583	1026		
S	12	)	1585	1001	1594	1033		
S	13	DQUOTE	1599	1002	1608	1011		
FR	7	1233	1174	1417	1213
W	1	"context(w)"	1233	1180	1415	1213		
S	2	DQUOTE	1233	1181	1242	1190		
S	3	c	1247	1188	1259	1205		
S	4	o	1263	1188	1277	1205		
S	5	n	1280	1188	1296	1205		
S	6	t	1298	1185	1307	1205		
S	7	e	1309	1188	1322	1205		
S	8	x	1325	1188	1341	1205		
S	9	t	1343	1185	1351	1205		
S	10	(	1354	1180	1363	1213		
S	11	w	1365	1188	1389	1205		
S	12	)	1392	1180	1400	1213		
S	13	DQUOTE	1405	1181	1415	1190		
FR	8	983	1446	1086	1483
W	1	(1997)	989	1451	1083	1483		
S	2	(	989	1451	997	1483		
S	3	1	1003	1452	1015	1475		
S	4	9	1019	1452	1034	1476		
S	5	9	1038	1452	1052	1476		
S	6	7	1057	1452	1071	1475		
S	7	)	1075	1451	1083	1483		
FR	9	946	1486	1859	1574
W	1	algorithm	946	1541	1085	1574		
W	2	words	1079	1495	1167	1520		
W	3	was	1110	1546	1161	1566		
W	4	P(synset)×(1-	1239	1503	1459	1538		
W	5	wiecontext	1484	1548	1590	1567		
W	6	l-I(1-P(wilsynset)))	1512	1503	1854	1538		
S	7	t	943	1500	952	1520		
S	8	a	946	1549	959	1566		
S	9	i	954	1496	962	1520		
S	10	l	961	1541	969	1566		
S	11	o	965	1503	980	1520		
S	12	g	973	1547	988	1574		
S	13	n	983	1503	999	1520		
S	14	o	991	1549	1005	1566		
S	15	s	1002	1503	1012	1520		
S	16	r	1008	1549	1018	1566		
S	17	i	1021	1542	1029	1566		
S	18	t	1031	1546	1040	1566		
S	19	o	1034	1503	1048	1520		
S	20	h	1041	1541	1057	1566		
S	21	f	1053	1495	1064	1520		
S	22	m	1060	1549	1085	1566		
S	23	w	1079	1503	1103	1520		
S	24	o	1106	1503	1120	1520		
S	25	w	1110	1546	1126	1566		
S	26	r	1124	1503	1134	1520		
S	27	a	1130	1546	1144	1566		
S	28	d	1137	1495	1153	1520		
S	29	s	1149	1546	1161	1566		
S	30	s	1156	1503	1167	1520		
S	31	P	1239	1506	1252	1530		
S	32	(	1259	1503	1266	1538		
S	33	s	1275	1510	1286	1530		
S	34	y	1291	1511	1305	1538		
S	35	n	1310	1510	1321	1530		
S	36	s	1327	1510	1339	1530		
S	37	e	1344	1510	1357	1530		
S	38	t	1362	1506	1373	1530		
S	39	)	1382	1503	1389	1538		
S	40	×	1397	1510	1409	1526		
S	41	(	1417	1503	1424	1538		
S	42	1	1432	1506	1445	1530		
S	43	-	1452	1519	1459	1522		
S	44	w	1484	1553	1500	1567		
S	45	i	1501	1548	1506	1567		
S	46	e	1507	1553	1517	1567		
S	47	l	1512	1503	1525	1530		
S	48	c	1519	1553	1529	1567		
S	49	o	1530	1553	1541	1567		
S	50	-	1532	1519	1540	1522		
S	51	n	1542	1553	1553	1567		
S	52	I	1548	1506	1559	1530		
S	53	t	1555	1550	1561	1567		
S	54	e	1561	1553	1571	1567		
S	55	(	1567	1503	1574	1538		
S	56	x	1571	1553	1583	1567		
S	57	1	1582	1506	1595	1530		
S	58	t	1584	1550	1590	1567		
S	59	-	1602	1519	1609	1522		
S	60	P	1617	1506	1630	1530		
S	61	(	1637	1503	1644	1538		
S	62	w	1650	1511	1666	1530		
S	63	i	1670	1503	1682	1530		
S	64	l	1687	1503	1700	1530		
S	65	s	1705	1510	1716	1530		
S	66	y	1721	1511	1735	1538		
S	67	n	1740	1510	1751	1530		
S	68	s	1757	1510	1769	1530		
S	69	e	1774	1510	1787	1530		
S	70	t	1792	1506	1803	1530		
S	71	)	1812	1503	1819	1538		
S	72	)	1829	1503	1836	1538		
S	73	)	1847	1503	1854	1538		
FR	10	1758	1677	1897	1715
W	1	P(synset)	1762	1683	1897	1715		
S	2	P	1762	1684	1779	1708		
S	3	(	1783	1683	1792	1715		
S	4	s	1795	1691	1806	1708		
S	5	y	1809	1691	1825	1715		
S	6	n	1828	1691	1843	1708		
S	7	s	1847	1691	1857	1708		
S	8	e	1861	1691	1874	1708		
S	9	t	1876	1687	1885	1708		
S	10	)	1888	1683	1897	1715		
FR	11	1232	1725	1415	1760
W	1	P(wilsymet).	1232	1728	1415	1760		
S	2	P	1232	1729	1249	1753		
S	3	(	1253	1728	1261	1760		
S	4	w	1264	1736	1288	1753		
S	5	i	1290	1729	1298	1753		
S	6	l	1300	1728	1308	1753		
S	7	s	1312	1736	1322	1753		
S	8	y	1325	1736	1341	1760		
S	9	m	1343	1736	1368	1753		
S	10	e	1371	1736	1384	1753		
S	11	t	1386	1733	1395	1753		
S	12	)	1398	1728	1406	1760		
S	13	.	1411	1749	1415	1753		
FR	12	1707	1769	1909	1805
W	1	Pdwl]symet))	1712	1772	1909	1805		
S	2	P	1712	1774	1728	1797		
S	3	d	1732	1772	1748	1797		
S	4	w	1749	1781	1774	1797		
S	5	l	1776	1772	1784	1797		
S	6	]	1787	1772	1795	1802		
S	7	s	1800	1780	1811	1797		
S	8	y	1814	1781	1830	1805		
S	9	m	1832	1780	1857	1797		
S	10	e	1861	1780	1873	1797		
S	11	t	1876	1777	1885	1797		
S	12	)	1888	1772	1896	1805		
S	13	)	1900	1772	1909	1805		
FR	13	1463	1905	1575	1940
W	1	belongs	1463	1907	1575	1940		
S	2	b	1463	1907	1479	1932		
S	3	e	1483	1915	1495	1932		
S	4	l	1499	1907	1507	1932		
S	5	o	1510	1915	1524	1932		
S	6	n	1527	1915	1543	1932		
S	7	g	1546	1914	1561	1940		
S	8	s	1564	1915	1575	1932		
FR	14	1326	1906	1373	1938
W	1	Wk	1327	1907	1373	1932		
S	2	W	1327	1908	1359	1932		
S	3	k	1357	1907	1373	1932		
FR	15	1763	1908	1785	1936
W	1	si	1764	1908	1785	1932		
S	2	s	1764	1915	1775	1932		
S	3	i	1777	1908	1785	1932		
FR	16	925	1939	1015	1976
W	1	1997),	929	1944	1015	1976		
S	2	1	929	1945	941	1969		
S	3	9	945	1945	959	1969		
S	4	9	962	1945	977	1969		
S	5	7	981	1945	995	1969		
S	6	)	998	1944	1007	1976		
S	7	COMMA	1010	1965	1015	1974		
FR	17	689	2075	768	2106
W	1	Croft	692	2077	768	2103		
S	2	C	692	2079	711	2103		
S	3	r	715	2086	725	2103		
S	4	o	729	2086	743	2103		
S	5	f	747	2077	757	2103		
S	6	t	759	2082	768	2103		
FR	18	1843	2219	1932	2248
W	1	sitend	1845	2219	1932	2245		
S	2	s	1845	2227	1856	2245		
S	3	i	1859	2221	1867	2244		
S	4	t	1870	2224	1879	2245		
S	5	e	1882	2227	1894	2245		
S	6	n	1898	2227	1913	2244		
S	7	d	1916	2219	1932	2245		
FR	19	1359	2440	1512	2477
W	1	sj	1360	2444	1378	2475		
W	2	(	1400	2443	1409	2475		
W	3	i	1422	2444	1430	2468		
W	4	~	1451	2453	1467	2459		
W	5	j	1476	2444	1484	2475		
W	6	)	1501	2443	1510	2475		
S	7	s	1360	2451	1370	2468		
S	8	j	1370	2444	1378	2475		
S	9	(	1400	2443	1409	2475		
S	10	i	1422	2444	1430	2468		
S	11	~	1451	2453	1467	2459		
S	12	j	1476	2444	1484	2475		
S	13	)	1501	2443	1510	2475		
P	3	
FR	1	927	269	949	298
W	1	si	928	269	949	293		
S	2	s	928	276	939	293		
S	3	i	941	269	949	293		
FR	2	1050	269	1073	302
W	1	sj	1050	269	1068	300		
S	2	s	1050	276	1061	293		
S	3	j	1061	269	1068	300		
FR	3	979	316	1000	344
W	1	si	980	316	1000	340		
S	2	s	980	323	991	340		
S	3	i	992	316	1000	340		
FR	4	426	361	448	392
W	1	sj	429	361	447	392		
S	2	s	429	368	439	385		
S	3	j	440	361	447	392		
FR	5	298	448	320	484
W	1	4	300	454	318	481		
S	2	4	300	454	318	481		
FR	6	462	591	571	628
W	1	(1997).	467	596	571	628		
S	2	(	467	596	475	628		
S	3	1	481	597	493	620		
S	4	9	498	597	512	621		
S	5	9	516	597	531	621		
S	6	7	536	597	550	620		
S	7	)	553	596	562	628		
S	8	.	567	617	571	621		
FR	7	1654	735	1744	769
W	1	phase.	1654	736	1744	769		
S	2	p	1654	744	1669	769		
S	3	h	1672	736	1689	761		
S	4	a	1692	744	1705	762		
S	5	s	1708	744	1719	762		
S	6	e	1723	744	1735	762		
S	7	.	1740	757	1744	762		
FR	8	1260	860	1777	985
W	1	Po(wilx)--	1264	915	1433	968		
W	2	LwM[wIx]	1436	915	1664	964		
W	3	M[w,	1481	871	1577	921		
W	4	Ix]	1580	871	1632	920		
W	5	(3)	1731	915	1777	968		
S	6	P	1264	917	1290	956		
S	7	o	1290	928	1310	956		
S	8	(	1311	915	1323	968		
S	9	w	1322	929	1355	956		
S	10	i	1354	915	1365	956		
S	11	l	1364	915	1375	956		
S	12	x	1373	929	1396	956		
S	13	)	1395	915	1407	968		
S	14	-	1408	939	1420	944		
S	15	-	1421	939	1433	944		
S	16	L	1436	917	1464	956		
S	17	w	1469	929	1502	956		
S	18	M	1481	874	1523	912		
S	19	M	1506	917	1548	956		
S	20	[	1526	871	1536	920		
S	21	w	1536	885	1569	913		
S	22	[	1555	915	1565	964		
S	23	COMMA	1568	904	1577	921		
S	24	w	1570	929	1603	956		
S	25	I	1580	874	1595	912		
S	26	x	1597	885	1620	912		
S	27	I	1607	917	1622	956		
S	28	]	1621	871	1632	920		
S	29	x	1627	929	1649	956		
S	30	]	1654	915	1664	964		
S	31	(	1731	915	1743	968		
S	32	3	1744	917	1764	956		
S	33	)	1765	915	1777	968		
FR	9	1371	1009	1407	1034
W	1	wi	1371	1009	1405	1033		
S	2	w	1371	1016	1395	1033		
S	3	i	1397	1009	1405	1033		
FR	10	1590	1011	1611	1033
W	1	x	1592	1016	1608	1033		
S	2	x	1592	1016	1608	1033		
FR	11	1133	1048	1270	1083
W	1	M[w][x]	1138	1054	1263	1083		
S	2	M	1138	1055	1166	1079		
S	3	[	1171	1054	1179	1083		
S	4	w	1182	1062	1206	1079		
S	5	]	1210	1054	1217	1083		
S	6	[	1224	1054	1232	1083		
S	7	x	1235	1062	1252	1079		
S	8	]	1255	1054	1263	1083		
FR	12	930	1062	1071	1091
W	1	100-word	930	1066	1071	1091		
S	2	1	930	1067	942	1091		
S	3	0	947	1067	961	1091		
S	4	0	966	1067	980	1091		
S	5	-	984	1081	993	1083		
S	6	w	996	1074	1021	1091		
S	7	o	1024	1074	1038	1091		
S	8	r	1042	1074	1052	1091		
S	9	d	1056	1066	1071	1091		
FR	13	1263	1179	1776	1312
W	1	P~(x)=	1266	1265	1370	1297		
W	2	Z,,~w.y~rM[wly	1396	1261	1674	1298		
W	3	Z.,,,,M[wlx]	1423	1180	1668	1242		
W	4	]	1683	1261	1696	1295		
W	5	(4)	1737	1265	1776	1297		
S	6	P	1266	1266	1282	1289		
S	7	~	1287	1275	1303	1281		
S	8	(	1308	1265	1317	1297		
S	9	x	1320	1273	1336	1289		
S	10	)	1340	1265	1349	1297		
S	11	=	1355	1273	1370	1282		
S	12	Z	1396	1263	1417	1289		
S	13	COMMA	1421	1285	1426	1296		
S	14	Z	1423	1182	1453	1231		
S	15	COMMA	1433	1285	1439	1296		
S	16	~	1445	1272	1463	1279		
S	17	.	1455	1220	1463	1232		
S	18	COMMA	1466	1220	1475	1242		
S	19	w	1468	1271	1491	1290		
S	20	COMMA	1478	1220	1488	1242		
S	21	COMMA	1491	1220	1501	1242		
S	22	.	1496	1285	1500	1290		
S	23	y	1503	1271	1523	1298		
S	24	COMMA	1504	1220	1513	1242		
S	25	M	1517	1182	1564	1231		
S	26	~	1527	1272	1545	1279		
S	27	r	1550	1270	1563	1289		
S	28	[	1564	1180	1582	1240		
S	29	M	1566	1263	1598	1289		
S	30	w	1579	1197	1613	1231		
S	31	[	1602	1261	1615	1295		
S	32	l	1614	1180	1627	1231		
S	33	w	1618	1271	1641	1290		
S	34	x	1626	1197	1651	1231		
S	35	l	1646	1261	1654	1289		
S	36	]	1649	1180	1668	1240		
S	37	y	1654	1271	1674	1298		
S	38	]	1683	1261	1696	1295		
S	39	(	1737	1265	1746	1297		
S	40	4	1749	1266	1765	1289		
S	41	)	1768	1265	1776	1297		
FR	14	302	1204	387	1238
W	1	target	302	1210	387	1238		
S	2	t	302	1210	311	1231		
S	3	a	314	1214	328	1231		
S	4	r	330	1214	341	1231		
S	5	g	344	1212	359	1238		
S	6	e	362	1214	375	1231		
S	7	t	378	1210	387	1231		
FR	15	1371	1341	1399	1364
W	1	w	1371	1347	1395	1364		
S	2	w	1371	1347	1395	1364		
FR	16	1880	1343	1903	1364
W	1	x	1884	1347	1900	1364		
S	2	x	1884	1347	1900	1364		
FR	17	1300	1374	1430	1423
W	1	symet,	1300	1390	1396	1417		
W	2	y	1414	1393	1430	1417		
S	3	s	1300	1393	1311	1410		
S	4	y	1314	1393	1331	1417		
S	5	m	1334	1393	1359	1410		
S	6	e	1363	1393	1375	1410		
S	7	t	1379	1390	1388	1410		
S	8	COMMA	1391	1406	1396	1415		
S	9	y	1414	1393	1430	1417		
FR	18	302	1437	378	1467
W	1	takes	302	1439	378	1464		
S	2	t	302	1443	311	1464		
S	3	a	315	1447	328	1464		
S	4	k	331	1439	347	1463		
S	5	e	350	1447	363	1464		
S	6	s	367	1447	378	1464		
FR	19	1171	1705	1208	1731
W	1	M	1176	1707	1204	1731		
S	2	M	1176	1707	1204	1731		
FR	20	279	2091	353	2295
W	1	For	305	2134	353	2158		
W	2	Set	308	2091	350	2115		
S	3	F	305	2134	321	2157		
S	4	S	308	2091	322	2115		
S	5	o	325	2140	339	2158		
S	6	e	327	2098	339	2115		
S	7	t	342	2094	350	2115		
S	8	r	342	2140	353	2157		
FR	21	698	2259	731	2288
W	1	wi	698	2259	731	2283		
S	2	w	698	2266	722	2283		
S	3	i	723	2259	731	2283		
FR	22	811	2298	931	2333
W	1	Pc(wilx)	818	2300	931	2333		
S	2	P	818	2302	835	2325		
S	3	c	837	2308	850	2326		
S	4	(	852	2300	861	2333		
S	5	w	862	2309	886	2326		
S	6	i	887	2302	895	2325		
S	7	l	896	2300	904	2325		
S	8	x	905	2309	921	2325		
S	9	)	923	2300	931	2333		
FR	23	698	2338	1028	2379
W	1	value	698	2342	774	2367		
W	2	*=	788	2344	821	2360		
W	3	(	833	2342	842	2375		
W	4	1	861	2343	872	2367		
W	5	-	883	2357	891	2360		
W	6	Pc(wilx))	903	2342	1028	2375		
S	7	v	698	2351	715	2367		
S	8	a	717	2350	730	2367		
S	9	l	733	2342	741	2367		
S	10	u	743	2351	759	2367		
S	11	e	762	2350	774	2367		
S	12	*	788	2344	801	2357		
S	13	=	805	2351	821	2360		
S	14	(	833	2342	842	2375		
S	15	1	861	2343	872	2367		
S	16	-	883	2357	891	2360		
S	17	P	903	2344	919	2367		
S	18	c	922	2350	935	2367		
S	19	(	937	2342	946	2375		
S	20	w	947	2351	971	2367		
S	21	i	972	2343	980	2367		
S	22	l	981	2342	989	2367		
S	23	x	990	2351	1006	2367		
S	24	)	1008	2342	1017	2375		
S	25	)	1019	2342	1028	2375		
FR	24	558	2463	1138	2499
W	1	P(xlcontext(w))	561	2467	772	2499		
W	2	=	793	2475	808	2484		
W	3	p~(x)*	821	2467	910	2499		
W	4	P(eontext(w)lx)	920	2467	1131	2499		
S	5	P	561	2468	577	2492		
S	6	(	580	2467	589	2499		
S	7	x	590	2475	606	2492		
S	8	l	607	2467	615	2492		
S	9	c	617	2475	630	2492		
S	10	o	632	2475	646	2492		
S	11	n	649	2475	664	2492		
S	12	t	665	2472	674	2492		
S	13	e	675	2475	688	2492		
S	14	x	689	2475	705	2492		
S	15	t	706	2472	715	2492		
S	16	(	717	2467	725	2499		
S	17	w	726	2475	751	2492		
S	18	)	752	2467	760	2499		
S	19	)	763	2467	772	2499		
S	20	=	793	2475	808	2484		
S	21	p	821	2475	836	2499		
S	22	~	839	2477	855	2483		
S	23	(	857	2467	866	2499		
S	24	x	867	2475	884	2492		
S	25	)	885	2467	894	2499		
S	26	*	897	2468	910	2481		
S	27	P	920	2468	936	2492		
S	28	(	939	2467	948	2499		
S	29	e	950	2475	963	2492		
S	30	o	965	2475	980	2492		
S	31	n	982	2475	997	2492		
S	32	t	998	2472	1007	2492		
S	33	e	1008	2475	1021	2492		
S	34	x	1022	2475	1038	2492		
S	35	t	1039	2472	1048	2492		
S	36	(	1050	2467	1058	2499		
S	37	w	1059	2475	1084	2492		
S	38	)	1085	2467	1093	2499		
S	39	l	1096	2467	1104	2492		
S	40	x	1105	2475	1121	2492		
S	41	)	1122	2467	1131	2499		
FR	25	1400	2505	1628	2541
W	1	P(xlcontext(w))	1406	2509	1616	2541		
S	2	P	1406	2510	1422	2534		
S	3	(	1425	2509	1433	2541		
S	4	x	1435	2517	1451	2534		
S	5	l	1452	2509	1460	2534		
S	6	c	1462	2517	1475	2534		
S	7	o	1477	2517	1491	2534		
S	8	n	1493	2517	1509	2534		
S	9	t	1510	2513	1519	2534		
S	10	e	1520	2517	1533	2534		
S	11	x	1534	2517	1550	2534		
S	12	t	1551	2513	1560	2534		
S	13	(	1561	2509	1570	2541		
S	14	w	1571	2517	1595	2534		
S	15	)	1597	2509	1605	2541		
S	16	)	1608	2509	1616	2541		
FR	26	578	2579	1495	2628
W	1	Figure	714	2593	813	2628		
W	2	2:	823	2593	851	2620		
W	3	WSD	869	2593	940	2620		
W	4	Algorithm:	941	2591	1100	2628		
W	5	the	1115	2591	1158	2620		
W	6	sense	1166	2600	1244	2620		
W	7	prediction	1246	2591	1397	2628		
W	8	phase	1405	2591	1495	2628		
S	9	F	714	2593	737	2620		
S	10	i	739	2593	746	2620		
S	11	g	747	2600	764	2628		
S	12	u	767	2601	782	2620		
S	13	r	785	2600	797	2620		
S	14	e	798	2600	813	2620		
S	15	2	823	2593	841	2620		
S	16	:	844	2601	851	2620		
S	17	W	869	2593	900	2620		
S	18	S	897	2593	914	2620		
S	19	D	914	2593	940	2620		
S	20	A	941	2593	965	2620		
S	21	l	967	2591	975	2620		
S	22	g	975	2600	993	2628		
S	23	o	995	2600	1011	2620		
S	24	r	1013	2600	1026	2620		
S	25	i	1028	2593	1035	2620		
S	26	t	1038	2597	1047	2620		
S	27	h	1048	2591	1063	2620		
S	28	m	1066	2600	1089	2620		
S	29	:	1093	2601	1100	2620		
S	30	t	1115	2597	1124	2620		
S	31	h	1126	2591	1141	2620		
S	32	e	1144	2600	1158	2620		
S	33	s	1166	2600	1179	2620		
S	34	e	1181	2600	1195	2620		
S	35	n	1197	2600	1213	2620		
S	36	s	1215	2600	1227	2620		
S	37	e	1230	2600	1244	2620		
S	38	p	1246	2600	1266	2628		
S	39	r	1268	2600	1281	2620		
S	40	e	1282	2600	1296	2620		
S	41	d	1298	2591	1315	2620		
S	42	i	1317	2593	1324	2620		
S	43	c	1327	2600	1341	2620		
S	44	t	1343	2597	1352	2620		
S	45	i	1354	2593	1361	2620		
S	46	o	1363	2600	1379	2620		
S	47	n	1381	2600	1397	2620		
S	48	p	1405	2600	1424	2628		
S	49	h	1428	2591	1443	2620		
S	50	a	1446	2600	1462	2620		
S	51	s	1465	2600	1478	2620		
S	52	e	1481	2600	1495	2620		
P	4	
FR	1	911	390	995	420
W	1	WSD	911	395	990	420		
S	2	W	911	396	943	420		
S	3	S	948	395	963	419		
S	4	D	968	396	990	419		
FR	2	1955	470	1986	500
W	1	10	1956	475	1986	499		
S	2	1	1956	475	1968	498		
S	3	0	1971	475	1986	499		
FR	3	437	527	525	562
W	1	1997).	439	530	525	562		
S	2	1	439	531	451	555		
S	3	9	455	531	469	555		
S	4	9	472	531	487	555		
S	5	7	491	531	505	555		
S	6	)	508	530	516	562		
S	7	.	521	551	525	555		
FR	4	1245	561	1279	589
W	1	10	1248	565	1278	589		
S	2	1	1248	565	1260	589		
S	3	0	1264	565	1278	589		
FR	5	1678	1422	1756	1457
W	1	scale,	1678	1427	1756	1457		
S	2	s	1678	1435	1689	1452		
S	3	c	1692	1435	1705	1452		
S	4	a	1708	1435	1721	1452		
S	5	l	1724	1427	1732	1452		
S	6	e	1735	1435	1747	1452		
S	7	COMMA	1751	1448	1756	1457		
FR	6	1427	1785	1575	1822
W	1	Spearman	1431	1790	1575	1822		
S	2	S	1431	1790	1445	1815		
S	3	p	1450	1797	1465	1822		
S	4	e	1469	1797	1481	1815		
S	5	a	1486	1797	1499	1815		
S	6	r	1502	1797	1512	1814		
S	7	m	1515	1797	1540	1814		
S	8	a	1543	1797	1557	1815		
S	9	n	1560	1797	1575	1814		
FR	7	893	1934	926	1960
W	1	10	896	1936	926	1960		
S	2	1	896	1936	908	1960		
S	3	0	912	1936	926	1960		
FR	8	1824	2283	1930	2320
W	1	(1956),	1828	2288	1930	2320		
S	2	(	1828	2288	1836	2320		
S	3	1	1842	2289	1853	2313		
S	4	9	1858	2289	1872	2313		
S	5	5	1877	2289	1890	2313		
S	6	6	1895	2289	1909	2313		
S	7	)	1912	2288	1921	2320		
S	8	COMMA	1925	2309	1930	2318		
FR	9	1554	2374	1695	2410
W	1	(K	1558	2377	1594	2410		
W	2	=	1620	2386	1635	2395		
W	3	2)	1664	2377	1690	2410		
S	4	(	1558	2377	1567	2410		
S	5	K	1571	2379	1594	2402		
S	6	=	1620	2386	1635	2395		
S	7	2	1664	2378	1677	2402		
S	8	)	1682	2377	1690	2410		
FR	10	1606	2463	1769	2499
W	1	(N	1610	2467	1645	2499		
W	2	=	1665	2475	1681	2484		
W	3	365)	1703	2467	1766	2499		
S	4	(	1610	2467	1619	2499		
S	5	N	1623	2468	1645	2492		
S	6	=	1665	2475	1681	2484		
S	7	3	1703	2468	1717	2492		
S	8	6	1721	2468	1736	2492		
S	9	5	1740	2468	1754	2492		
S	10	)	1757	2467	1766	2499		
FR	11	1317	2464	1370	2494
W	1	365	1317	2468	1367	2492		
S	2	3	1317	2468	1331	2492		
S	3	6	1335	2468	1349	2492		
S	4	5	1353	2468	1367	2492		
FR	12	436	2591	648	2630
W	1	5	437	2599	451	2623		
W	2	A	455	2599	479	2622		
W	3	polysemous	489	2597	648	2630		
S	4	5	437	2599	451	2623		
S	5	A	455	2599	479	2622		
S	6	p	489	2605	504	2630		
S	7	o	506	2605	521	2623		
S	8	l	522	2597	530	2622		
S	9	y	532	2606	548	2630		
S	10	s	549	2605	560	2623		
S	11	e	562	2605	575	2623		
S	12	m	577	2605	602	2622		
S	13	y	596	2567	613	2591		
S	14	o	604	2605	618	2623		
S	15	u	620	2606	635	2623		
S	16	s	637	2605	648	2623		
P	5	
FR	1	1706	293	1801	390
W	1	H0?	1706	312	1760	336		
S	2	H	1706	312	1730	335		
S	3	0	1731	312	1745	336		
S	4	?	1747	312	1760	336		
FR	2	971	311	1541	379
W	1	K	984	312	1009	335		
W	2	2	990	354	1004	378		
W	3	.003	1086	354	1141	379		
W	4	Xr	1089	312	1126	335		
W	5	2	1125	312	1139	335		
W	6	df	1217	311	1247	336		
W	7	1	1228	354	1240	378		
W	8	Rejection	1297	311	1436	343		
W	9	3.84	1391	354	1448	379		
W	10	region	1448	311	1541	343		
S	11	K	984	312	1009	335		
S	12	2	990	354	1004	378		
S	13	.	1086	374	1090	379		
S	14	X	1089	312	1112	335		
S	15	0	1093	354	1108	378		
S	16	0	1110	354	1124	378		
S	17	r	1113	319	1126	335		
S	18	2	1125	312	1139	335		
S	19	3	1127	354	1141	378		
S	20	d	1217	311	1234	336		
S	21	1	1228	354	1240	378		
S	22	f	1236	311	1247	335		
S	23	R	1297	312	1320	335		
S	24	e	1322	319	1335	336		
S	25	j	1336	311	1345	343		
S	26	e	1349	319	1362	336		
S	27	c	1365	319	1377	336		
S	28	t	1380	316	1390	336		
S	29	3	1391	354	1405	378		
S	30	i	1392	311	1400	335		
S	31	o	1402	319	1416	336		
S	32	.	1408	374	1412	379		
S	33	8	1416	354	1430	378		
S	34	n	1419	319	1436	335		
S	35	4	1432	354	1448	378		
S	36	r	1448	319	1461	335		
S	37	e	1464	319	1477	336		
S	38	g	1479	317	1494	343		
S	39	i	1496	311	1504	335		
S	40	o	1507	319	1521	336		
S	41	n	1524	319	1541	335		
FR	3	656	575	1498	782
W	1	sense	656	757	731	774		
W	2	poo,Ung	658	661	771	692		
W	3	man.	672	627	742	644		
W	4	man.	673	712	743	729		
W	5	pooling	743	750	850	782		
W	6	WSD	755	620	830	644		
W	7	WSD	755	706	830	729		
W	8	2840	908	619	974	643		
W	9	2840	908	749	975	773		
W	10	2840	909	705	975	729		
W	11	N	929	577	951	601		
W	12	K	1031	576	1058	601		
W	13	2	1037	705	1051	729		
W	14	2	1037	750	1051	774		
W	15	3	1038	619	1051	643		
W	16	3.7356	1122	705	1212	729		
W	17	73.217	1123	619	1212	643		
W	18	5.9507	1123	750	1213	774		
W	19	x?	1144	575	1182	601		
W	20	df	1280	575	1310	600		
W	21	2	1286	620	1299	643		
W	22	Rejection	1359	577	1498	609		
S	23	s	650	627	661	644		
S	24	s	651	712	662	729		
S	25	s	656	757	667	774		
S	26	p	658	667	673	692		
S	27	e	670	758	683	774		
S	28	m	672	627	698	643		
S	29	m	673	712	699	729		
S	30	o	675	667	689	685		
S	31	n	685	757	702	774		
S	32	o	691	667	706	685		
S	33	a	701	627	716	644		
S	34	a	702	712	716	729		
S	35	s	704	757	715	774		
S	36	COMMA	708	681	713	690		
S	37	U	715	661	738	685		
S	38	n	718	627	734	643		
S	39	n	718	712	735	729		
S	40	e	718	758	731	774		
S	41	.	737	638	742	644		
S	42	.	738	724	743	729		
S	43	n	739	667	755	684		
S	44	p	743	757	759	781		
S	45	W	755	621	787	644		
S	46	W	755	706	787	729		
S	47	g	756	666	771	692		
S	48	o	763	757	777	774		
S	49	o	780	757	794	774		
S	50	S	790	620	805	644		
S	51	S	790	706	805	729		
S	52	l	796	750	804	774		
S	53	i	806	750	814	774		
S	54	D	808	621	830	643		
S	55	D	809	706	830	729		
S	56	n	816	757	833	774		
S	57	g	835	756	850	782		
S	58	2	908	619	921	643		
S	59	2	908	749	921	773		
S	60	2	909	705	922	729		
S	61	8	925	619	939	643		
S	62	8	925	749	939	773		
S	63	8	926	705	940	729		
S	64	N	929	577	951	601		
S	65	4	942	619	958	643		
S	66	4	942	750	958	773		
S	67	4	943	705	958	729		
S	68	0	960	619	974	643		
S	69	0	960	749	975	773		
S	70	0	961	705	975	729		
S	71	K	1031	576	1058	601		
S	72	2	1037	705	1051	729		
S	73	2	1037	750	1051	774		
S	74	3	1038	619	1051	643		
S	75	3	1122	705	1136	729		
S	76	7	1123	619	1136	643		
S	77	5	1123	751	1137	774		
S	78	3	1139	619	1153	643		
S	79	.	1139	725	1143	729		
S	80	.	1140	770	1144	774		
S	81	x	1144	583	1162	601		
S	82	7	1148	705	1162	729		
S	83	9	1148	750	1162	774		
S	84	.	1156	639	1160	643		
S	85	2	1164	619	1178	643		
S	86	3	1164	705	1178	729		
S	87	5	1165	751	1179	774		
S	88	?	1169	575	1182	601		
S	89	5	1181	705	1195	729		
S	90	1	1182	619	1194	643		
S	91	0	1182	750	1196	774		
S	92	7	1198	619	1212	643		
S	93	6	1198	705	1212	729		
S	94	7	1199	751	1213	774		
S	95	d	1280	576	1296	600		
S	96	2	1286	620	1299	643		
S	97	f	1299	575	1310	600		
S	98	R	1359	579	1383	602		
S	99	e	1384	585	1397	602		
S	100	j	1398	577	1407	609		
S	101	e	1412	585	1424	602		
S	102	c	1427	585	1440	602		
S	103	t	1442	582	1452	602		
S	104	i	1454	577	1462	602		
S	105	5	1454	620	1468	644		
S	106	3	1454	706	1468	730		
S	107	3	1454	750	1468	774		
S	108	o	1464	585	1478	602		
S	109	.	1471	640	1475	644		
S	110	.	1471	726	1475	730		
S	111	.	1471	770	1475	774		
S	112	9	1479	620	1493	644		
S	113	8	1479	706	1493	730		
S	114	8	1479	750	1493	774		
S	115	n	1481	585	1498	602		
S	116	4	1495	706	1511	730		
S	117	4	1495	750	1511	774		
S	118	9	1496	620	1510	644		
FR	4	1647	577	1824	826
W	1	Reject	1647	577	1741	609		
W	2	Yes	1701	620	1753	644		
W	3	Yes	1701	751	1753	774		
W	4	Yes	1701	794	1753	818		
W	5	No	1707	706	1747	730		
W	6	H9?	1752	578	1806	602		
S	7	R	1647	579	1671	602		
S	8	e	1673	585	1685	602		
S	9	j	1687	577	1696	609		
S	10	e	1700	585	1713	602		
S	11	Y	1701	620	1724	643		
S	12	Y	1701	751	1724	774		
S	13	Y	1701	794	1724	817		
S	14	N	1707	706	1729	730		
S	15	c	1716	585	1729	602		
S	16	e	1727	627	1739	644		
S	17	e	1727	757	1739	774		
S	18	e	1727	801	1739	818		
S	19	t	1731	582	1741	602		
S	20	o	1732	713	1747	730		
S	21	s	1743	627	1753	644		
S	22	s	1743	757	1753	774		
S	23	s	1743	801	1753	818		
S	24	H	1752	579	1776	602		
S	25	9	1777	578	1791	602		
S	26	?	1793	578	1806	602		
FR	5	1133	875	1322	911
W	1	(ct=.05,	1133	878	1239	911		
W	2	2-alt.	1248	878	1322	904		
S	3	(	1133	878	1145	911		
S	4	c	1144	886	1158	904		
S	5	t	1159	883	1168	904		
S	6	=	1171	887	1187	896		
S	7	.	1192	900	1196	904		
S	8	0	1200	879	1215	904		
S	9	5	1216	880	1232	904		
S	10	COMMA	1234	900	1239	909		
S	11	2	1248	879	1264	904		
S	12	-	1267	894	1276	896		
S	13	a	1279	886	1294	904		
S	14	l	1297	878	1304	904		
S	15	t	1307	883	1316	904		
S	16	.	1318	900	1322	904		
FR	6	1075	964	1105	992
W	1	K	1078	969	1101	992		
S	2	K	1078	969	1101	992		
FR	7	812	1100	1032	1138
W	1	(df	824	1105	867	1138		
W	2	=	888	1114	904	1123		
W	3	K	930	1107	953	1131		
W	4	-1),	978	1106	1030	1138		
S	5	(	824	1106	833	1138		
S	6	d	837	1106	853	1131		
S	7	f	857	1105	867	1131		
S	8	=	888	1114	904	1123		
S	9	K	930	1107	953	1131		
S	10	-	978	1121	987	1124		
S	11	1	994	1107	1006	1131		
S	12	)	1011	1106	1020	1138		
S	13	COMMA	1025	1127	1030	1136		
FR	8	531	1644	592	1681
W	1	(H0)	531	1649	592	1681		
S	2	(	531	1649	540	1681		
S	3	H	542	1650	564	1673		
S	4	0	567	1650	581	1674		
S	5	)	583	1649	592	1681		
FR	9	503	1691	590	1724
W	1	WSD,	503	1695	590	1724		
S	2	W	503	1695	534	1719		
S	3	S	539	1695	553	1719		
S	4	D	558	1695	580	1719		
S	5	COMMA	585	1715	590	1724		
FR	10	1066	1921	1106	1946
W	1	we	1066	1929	1106	1946		
S	2	w	1066	1929	1090	1946		
S	3	e	1094	1929	1106	1946		
FR	11	1317	1921	1374	1949
W	1	step	1317	1921	1373	1949		
S	2	s	1317	1924	1328	1942		
S	3	t	1331	1921	1339	1942		
S	4	e	1342	1924	1355	1942		
S	5	p	1358	1924	1373	1949		
FR	12	360	2545	381	2576
W	1	6	362	2550	376	2574		
S	2	6	362	2550	376	2574		
P	6	
FR	1	755	353	787	382
W	1	G.	758	358	787	382		
S	2	G	758	358	780	382		
S	3	.	783	378	787	382		
FR	2	1792	457	1941	493
W	1	(TREC-7).	1799	459	1941	493		
S	2	(	1799	459	1812	493		
S	3	T	1812	460	1831	485		
S	4	R	1829	460	1850	485		
S	5	E	1850	460	1871	485		
S	6	C	1874	460	1895	485		
S	7	-	1896	474	1905	477		
S	8	7	1908	460	1925	485		
S	9	)	1922	459	1934	493		
S	10	.	1937	481	1941	485		
FR	3	1832	539	1949	575
W	1	(NIST),	1838	540	1949	575		
S	2	(	1838	540	1845	575		
S	3	N	1853	543	1865	567		
S	4	I	1871	543	1882	567		
S	5	S	1888	542	1902	568		
S	6	T	1905	543	1920	567		
S	7	)	1927	540	1934	575		
S	8	COMMA	1944	562	1949	574		
FR	4	889	601	983	637
W	1	(1997).	889	604	983	637		
S	2	(	889	604	898	637		
S	3	1	902	605	914	629		
S	4	9	917	605	931	629		
S	5	9	933	605	948	629		
S	6	7	951	605	965	629		
S	7	)	967	604	976	637		
S	8	.	980	625	983	629		
FR	5	687	642	775	678
W	1	Query	688	647	775	678		
S	2	Q	688	647	711	677		
S	3	u	713	654	729	671		
S	4	e	732	654	744	671		
S	5	r	747	654	757	671		
S	6	y	759	654	775	678		
FR	6	1278	666	1309	692
W	1	D.	1279	668	1309	692		
S	2	D	1279	668	1301	691		
S	3	.	1305	687	1309	692		
FR	7	820	811	1043	847
W	1	(ACM/SIGIR)	826	813	1034	847		
S	2	(	826	813	838	847		
S	3	A	836	814	859	839		
S	4	C	863	814	884	839		
S	5	M	885	814	917	839		
S	6	/	915	814	929	839		
S	7	S	928	814	945	839		
S	8	I	947	814	960	839		
S	9	G	962	814	985	839		
S	10	I	987	814	1000	839		
S	11	R	1000	814	1021	839		
S	12	)	1022	813	1034	847		
FR	8	1062	891	1126	924
W	1	1997	1063	900	1126	924		
S	2	1	1063	900	1075	923		
S	3	9	1078	900	1092	924		
S	4	9	1095	900	1109	924		
S	5	7	1113	900	1126	923		
FR	9	693	895	861	931
W	1	Information	694	897	861	931		
S	2	I	694	899	707	923		
S	3	n	707	906	722	923		
S	4	f	724	897	737	931		
S	5	o	734	906	750	924		
S	6	r	752	906	764	923		
S	7	m	766	906	788	923		
S	8	a	791	906	806	924		
S	9	t	809	902	818	924		
S	10	i	819	898	826	923		
S	11	o	828	906	844	924		
S	12	n	846	906	861	923		
FR	10	1066	935	1122	968
W	1	NY:	1066	941	1122	965		
S	2	N	1066	941	1089	964		
S	3	Y	1090	941	1114	964		
S	4	:	1118	947	1122	965		
FR	11	1449	1161	1603	1198
W	1	Chodorow,	1450	1167	1603	1198		
S	2	C	1450	1168	1470	1192		
S	3	h	1472	1167	1489	1192		
S	4	o	1491	1175	1505	1192		
S	5	d	1509	1167	1524	1192		
S	6	o	1526	1175	1540	1192		
S	7	r	1543	1175	1553	1192		
S	8	o	1556	1175	1570	1192		
S	9	w	1572	1176	1596	1192		
S	10	COMMA	1598	1188	1603	1198		
FR	12	1328	1165	1367	1198
W	1	C.,	1331	1168	1367	1198		
S	2	C	1331	1168	1350	1192		
S	3	.	1354	1188	1358	1193		
S	4	COMMA	1362	1188	1367	1198		
FR	13	823	1226	1052	1262
W	1	(ACM/SIGIR)	830	1228	1039	1262		
S	2	(	830	1228	842	1262		
S	3	A	840	1230	864	1254		
S	4	C	867	1230	889	1255		
S	5	M	890	1230	921	1254		
S	6	/	919	1230	933	1255		
S	7	S	933	1230	949	1255		
S	8	I	951	1230	965	1254		
S	9	G	967	1230	990	1255		
S	10	I	992	1230	1005	1254		
S	11	R	1005	1230	1026	1254		
S	12	)	1027	1228	1039	1262		
FR	14	1815	1246	1947	1277
W	1	Fellbaum	1816	1250	1947	1275		
S	2	F	1816	1251	1833	1275		
S	3	e	1836	1258	1848	1275		
S	4	l	1851	1250	1859	1275		
S	5	l	1861	1250	1869	1275		
S	6	b	1870	1250	1886	1275		
S	7	a	1889	1258	1902	1275		
S	8	u	1904	1258	1920	1275		
S	9	m	1922	1258	1947	1275		
FR	15	1841	1289	1945	1322
W	1	Lexical	1841	1291	1945	1317		
S	2	L	1841	1292	1859	1317		
S	3	e	1862	1299	1876	1317		
S	4	x	1876	1299	1892	1317		
S	5	i	1894	1292	1901	1317		
S	6	c	1903	1299	1918	1317		
S	7	a	1919	1299	1934	1317		
S	8	l	1937	1291	1945	1317		
FR	16	1063	1307	1128	1341
W	1	1998	1065	1313	1128	1338		
S	2	1	1065	1314	1077	1337		
S	3	9	1080	1313	1095	1338		
S	4	9	1097	1313	1112	1338		
S	5	8	1114	1313	1128	1338		
FR	17	432	1395	590	1426
W	1	NY:	434	1397	490	1421		
W	2	ACM,	503	1397	589	1426		
S	3	N	434	1397	457	1421		
S	4	Y	459	1397	482	1421		
S	5	:	486	1404	490	1421		
S	6	A	503	1397	527	1421		
S	7	C	529	1397	549	1421		
S	8	M	552	1397	580	1421		
S	9	COMMA	584	1417	589	1426		
FR	18	1512	1415	1553	1448
W	1	G.,	1515	1418	1553	1448		
S	2	G	1515	1418	1537	1442		
S	3	.	1540	1438	1544	1443		
S	4	COMMA	1548	1438	1553	1448		
FR	19	1333	1416	1370	1448
W	1	C.,	1334	1418	1370	1448		
S	2	C	1334	1418	1354	1442		
S	3	.	1358	1438	1362	1443		
S	4	COMMA	1365	1438	1370	1448		
FR	20	776	1561	822	1587
W	1	UC	776	1563	821	1587		
S	2	U	776	1563	798	1587		
S	3	C	802	1563	821	1587		
FR	21	1312	1622	1341	1649
W	1	G.	1312	1625	1341	1649		
S	2	G	1312	1625	1334	1649		
S	3	.	1337	1645	1341	1649		
FR	22	1717	1622	1821	1649
W	1	On-line	1717	1624	1821	1649		
S	2	O	1717	1625	1738	1649		
S	3	n	1741	1632	1757	1649		
S	4	-	1759	1639	1768	1642		
S	5	l	1770	1624	1778	1649		
S	6	i	1780	1625	1788	1649		
S	7	n	1791	1632	1806	1649		
S	8	e	1809	1632	1821	1649		
FR	23	557	1727	652	1760
W	1	(1997).	557	1728	652	1760		
S	2	(	557	1728	566	1760		
S	3	1	570	1729	582	1753		
S	4	9	585	1729	599	1753		
S	5	9	602	1729	616	1753		
S	6	7	619	1729	633	1753		
S	7	)	635	1728	644	1760		
S	8	.	648	1749	652	1753		
FR	24	1346	1795	1348	1825
FR	25	1060	1809	1131	1844
W	1	Fifth	1061	1810	1131	1844		
S	2	F	1061	1812	1083	1836		
S	3	i	1085	1812	1092	1836		
S	4	f	1094	1810	1107	1844		
S	5	t	1105	1815	1114	1837		
S	6	h	1116	1810	1131	1836		
FR	26	685	1849	847	1886
W	1	Conference	687	1852	847	1886		
S	2	C	687	1853	709	1879		
S	3	o	710	1860	725	1879		
S	4	n	728	1860	743	1878		
S	5	f	744	1852	758	1886		
S	6	e	755	1860	769	1879		
S	7	r	771	1860	783	1878		
S	8	e	784	1860	798	1879		
S	9	n	800	1860	815	1878		
S	10	c	818	1860	832	1879		
S	11	e	833	1860	847	1879		
FR	27	1252	1916	1461	1944
W	1	ACL	1252	1916	1319	1941		
W	2	SIGLEX	1337	1916	1460	1941		
S	3	A	1252	1916	1275	1940		
S	4	C	1278	1916	1300	1941		
S	5	L	1300	1916	1319	1940		
S	6	S	1337	1916	1353	1941		
S	7	I	1355	1916	1368	1940		
S	8	G	1369	1916	1392	1941		
S	9	L	1393	1916	1412	1940		
S	10	E	1414	1916	1435	1940		
S	11	X	1436	1916	1460	1940		
FR	28	602	2060	634	2085
W	1	D.	604	2060	634	2084		
S	2	D	604	2060	626	2084		
S	3	.	630	2080	634	2084		
FR	29	663	2140	771	2174
W	1	English	665	2142	771	2174		
S	2	E	665	2143	683	2167		
S	3	n	686	2150	702	2167		
S	4	g	704	2148	719	2174		
S	5	l	721	2142	729	2167		
S	6	i	731	2143	739	2167		
S	7	s	742	2150	753	2167		
S	8	h	755	2142	771	2167		
FR	30	439	2142	593	2174
W	1	(CINDOR)	439	2142	593	2174		
S	2	(	439	2142	448	2174		
S	3	C	451	2143	470	2167		
S	4	I	474	2143	483	2167		
S	5	N	486	2143	509	2167		
S	6	D	511	2143	533	2167		
S	7	O	537	2143	558	2167		
S	8	R	561	2143	583	2167		
S	9	)	585	2142	593	2174		
FR	31	690	2221	852	2257
W	1	Conference	692	2223	852	2257		
S	2	C	692	2225	714	2250		
S	3	o	715	2232	730	2250		
S	4	n	733	2232	748	2249		
S	5	f	750	2223	763	2257		
S	6	e	760	2232	774	2250		
S	7	r	776	2232	789	2249		
S	8	e	789	2232	803	2250		
S	9	n	805	2232	820	2249		
S	10	c	823	2232	837	2250		
S	11	e	838	2232	852	2250		
FR	32	877	2223	1033	2257
W	1	(TREC-7).	882	2223	1033	2257		
S	2	(	882	2223	894	2257		
S	3	T	896	2225	915	2249		
S	4	R	914	2225	935	2249		
S	5	E	936	2225	957	2249		
S	6	C	961	2225	983	2250		
S	7	-	985	2239	994	2242		
S	8	7	998	2225	1015	2249		
S	9	)	1013	2223	1026	2257		
S	10	.	1029	2245	1033	2250		
FR	33	596	2264	665	2296
W	1	9-11;	598	2267	665	2296		
S	2	9	598	2267	612	2291		
S	3	-	615	2281	623	2283		
S	4	1	628	2267	639	2290		
S	5	1	644	2267	656	2290		
S	6	;	660	2274	665	2296		
FR	34	1363	2287	1394	2313
W	1	D.	1365	2288	1394	2312		
S	2	D	1365	2288	1387	2312		
S	3	.	1390	2308	1394	2312		
FR	35	441	2553	801	2587
W	1	COLING/ACL	443	2554	643	2579		
W	2	Workshop	661	2553	801	2587		
S	3	C	443	2554	465	2579		
S	4	O	466	2554	489	2579		
S	5	L	490	2554	508	2579		
S	6	I	510	2554	523	2579		
S	7	N	521	2554	547	2579		
S	8	G	547	2554	570	2579		
S	9	/	569	2554	583	2579		
S	10	A	578	2554	602	2579		
S	11	C	604	2554	626	2579		
S	12	L	625	2554	643	2579		
S	13	W	661	2554	691	2579		
S	14	o	689	2561	705	2579		
S	15	r	707	2561	720	2579		
S	16	k	721	2553	736	2579		
S	17	s	736	2561	748	2579		
S	18	h	750	2553	765	2579		
S	19	o	768	2561	783	2579		
S	20	p	782	2561	801	2587		
